Jean, Waters, 758818991, 2110
Randy, Mcguire, 656129320, 1276
Terrell, Nunez, 198616233, 449
Katherine, Murphy, 937416401, 782
Pete, Massey, 318129395, 6
Audrey, Vega, 352066473, 2532
Ricardo, Terry, 154770478, 2305
Clark, Elliott, 401842066, 1568
Kimberly, Carson, 321811857, 657
Thomas, Castillo, 249299846, 842
Carmen, Mitchell, 780141394, 1305
Sylvester, Allen, 561676248, 1728
Stephanie, Mccarthy, 359902143, 308
Elijah, Munoz, 447912493, 28
Daryl, Davis, 653797240, 2500
Shirley, Barber, 899929247, 1394
Nichole, Ballard, 384545168, 885
Guadalupe, Newton, 427037539, 465
Velma, Malone, 850960217, 843
Mattie, Shelton, 816140665, 1616
Kerry, Parks, 681403764, 2048
Ismael, Allison, 470633858, 2262
Ora, Harvey, 569585389, 1391
Angelina, Curtis, 251446912, 439
Jennie, Myers, 298765038, 335